<?xml version="1.0" standalone="no"?>
<!DOCTYPE svg PUBLIC "-//W3C//DTD SVG 1.1//EN" "http://www.w3.org/Graphics/SVG/1.1/DTD/svg11.dtd" >
<!--
2013-9-30: Created.
-->
<svg>
<metadata>
Created by iconfont
</metadata>
<defs>

<font id="iconfont" horiz-adv-x="1024" >
  <font-face
    font-family="iconfont"
    font-weight="500"
    font-stretch="normal"
    units-per-em="1024"
    ascent="896"
    descent="-128"
  />
    <missing-glyph />
    
    <glyph glyph-name="Menu" unicode="&#58980;" d="M512-128a512 512 0 1 0 512 512 512 512 0 0 0-512-512z m0 992A480 480 0 1 1 992 384 480 480 0 0 1 512 864zM320 272h384v-32h-384v32z m0 128h384v-32h-384v32z m0 128h384v-32h-384v32z"  horiz-adv-x="1024" />

    
    <glyph glyph-name="icon_nav_hero" unicode="&#58898;" d="M452.969412 804.743529c58.428235 103.604706 217.449412 115.952941 287.021176 16.865883 58.127059-61.44 36.442353-148.178824 10.842353-218.955294 44.875294-56.922353 90.654118-113.242353 136.432941-169.261177 84.028235 57.524706 169.562353 113.242353 257.204706 165.345883 15.058824-10.541176 45.176471-31.924706 60.235294-42.465883v-28.009412c-48.489412-181.007059-92.461176-363.218824-139.143529-544.527058-8.734118-50.597647-43.971765-86.738824-86.738824-111.736471H236.122353c-40.056471 18.371765-81.317647 43.068235-89.750588 90.051765C93.364706 150.287059 52.103529 341.835294 0 530.371765v23.792941c15.962353 9.637647 47.585882 28.912941 63.247059 38.550588 92.16-40.658824 171.068235-105.110588 255.397647-159.021176 45.778824 56.32 91.256471 112.64 136.131765 169.562353-21.684706 64.451765-47.887059 140.348235-1.807059 201.487058m59.934117-85.835294c10.541176-43.068235 35.237647-81.016471 55.115295-120.169411-75.896471-90.654118-143.36-189.138824-233.411765-267.14353a2104.832 2104.832 0 0 0-228.592941 135.830588C158.72 299.369412 191.247059 126.192941 240.941176-42.767059c240.64-4.818824 481.581176-4.216471 722.221177-0.301176 49.995294 168.658824 82.522353 342.437647 135.830588 510.192941a2186.842353 2186.842353 0 0 0-228.894117-135.529412c-87.341176 78.607059-160.527059 171.369412-228.291765 266.842353 14.155294 58.127059 83.425882 123.783529 19.275294 175.585882-49.694118 59.030588-136.734118 10.842353-148.178824-55.115294zM235.52 240.037647c17.769412 6.927059 52.705882 20.781176 70.475294 27.708235 36.141176-69.872941 52.103529-147.275294 62.042353-224.677647-120.771765-52.103529-108.423529 124.385882-132.517647 196.969412z"  horiz-adv-x="1204" />

    


  </font>
</defs></svg>
